{
    "_links": {
        "self": {
            "href": "http:\/\/meli.bukach.me\/sites\/default\/files\/2021-01\/20201110154657-30d257a3.jpg"
        },
        "type": {
            "href": "http:\/\/meli.bukach.me\/rest\/type\/file\/file"
        },
        "http:\/\/meli.bukach.me\/rest\/relation\/file\/file\/uid": [
            {
                "href": "http:\/\/meli.bukach.me\/user\/46?_format=hal_json"
            }
        ]
    },
    "uuid": [
        {
            "value": "7fa3093c-d602-445e-baf3-60e9249a56ed"
        }
    ],
    "langcode": [
        {
            "value": "en"
        }
    ],
    "_embedded": {
        "http:\/\/meli.bukach.me\/rest\/relation\/file\/file\/uid": [
            {
                "_links": {
                    "self": {
                        "href": "http:\/\/meli.bukach.me\/user\/46?_format=hal_json"
                    },
                    "type": {
                        "href": "http:\/\/meli.bukach.me\/rest\/type\/user\/user"
                    }
                },
                "uuid": [
                    {
                        "value": "1662274a-95fa-4f0d-88c0-f625a051ba73"
                    }
                ]
            }
        ]
    },
    "filename": [
        {
            "value": "20201110154657-30d257a3.jpg"
        }
    ],
    "uri": [
        {
            "value": "public:\/\/2021-01\/20201110154657-30d257a3.jpg",
            "url": "\/sites\/default\/files\/2021-01\/20201110154657-30d257a3.jpg"
        }
    ],
    "filemime": [
        {
            "value": "image\/jpeg"
        }
    ],
    "filesize": [
        {
            "value": 73819
        }
    ],
    "status": [
        {
            "value": true
        }
    ],
    "created": [
        {
            "value": "2021-01-11T08:14:05+00:00",
            "format": "Y-m-d\\TH:i:sP"
        }
    ],
    "changed": [
        {
            "value": "2021-01-11T08:14:49+00:00",
            "format": "Y-m-d\\TH:i:sP"
        }
    ]
}