{
    "_links": {
        "self": {
            "href": "http:\/\/meli.bukach.me\/sites\/default\/files\/2021-01\/20201110163158-fb84257f.png"
        },
        "type": {
            "href": "http:\/\/meli.bukach.me\/rest\/type\/file\/file"
        },
        "http:\/\/meli.bukach.me\/rest\/relation\/file\/file\/uid": [
            {
                "href": "http:\/\/meli.bukach.me\/user\/46?_format=hal_json"
            }
        ]
    },
    "uuid": [
        {
            "value": "9eb33390-2d0e-47d1-a43a-9406dc3e30cb"
        }
    ],
    "langcode": [
        {
            "value": "en"
        }
    ],
    "_embedded": {
        "http:\/\/meli.bukach.me\/rest\/relation\/file\/file\/uid": [
            {
                "_links": {
                    "self": {
                        "href": "http:\/\/meli.bukach.me\/user\/46?_format=hal_json"
                    },
                    "type": {
                        "href": "http:\/\/meli.bukach.me\/rest\/type\/user\/user"
                    }
                },
                "uuid": [
                    {
                        "value": "1662274a-95fa-4f0d-88c0-f625a051ba73"
                    }
                ]
            }
        ]
    },
    "filename": [
        {
            "value": "20201110163158-fb84257f.png"
        }
    ],
    "uri": [
        {
            "value": "public:\/\/2021-01\/20201110163158-fb84257f.png",
            "url": "\/sites\/default\/files\/2021-01\/20201110163158-fb84257f.png"
        }
    ],
    "filemime": [
        {
            "value": "image\/png"
        }
    ],
    "filesize": [
        {
            "value": 153517
        }
    ],
    "status": [
        {
            "value": true
        }
    ],
    "created": [
        {
            "value": "2021-01-12T09:27:46+00:00",
            "format": "Y-m-d\\TH:i:sP"
        }
    ],
    "changed": [
        {
            "value": "2021-01-12T09:28:19+00:00",
            "format": "Y-m-d\\TH:i:sP"
        }
    ]
}