{
    "_links": {
        "self": {
            "href": "http:\/\/meli.bukach.me\/sites\/default\/files\/2021-01\/20201113084525-23f5fd82_0.jpg"
        },
        "type": {
            "href": "http:\/\/meli.bukach.me\/rest\/type\/file\/file"
        },
        "http:\/\/meli.bukach.me\/rest\/relation\/file\/file\/uid": [
            {
                "href": "http:\/\/meli.bukach.me\/user\/46?_format=hal_json"
            }
        ]
    },
    "uuid": [
        {
            "value": "a571d810-d48a-4224-ac44-bad3a8b170ce"
        }
    ],
    "langcode": [
        {
            "value": "en"
        }
    ],
    "_embedded": {
        "http:\/\/meli.bukach.me\/rest\/relation\/file\/file\/uid": [
            {
                "_links": {
                    "self": {
                        "href": "http:\/\/meli.bukach.me\/user\/46?_format=hal_json"
                    },
                    "type": {
                        "href": "http:\/\/meli.bukach.me\/rest\/type\/user\/user"
                    }
                },
                "uuid": [
                    {
                        "value": "1662274a-95fa-4f0d-88c0-f625a051ba73"
                    }
                ]
            }
        ]
    },
    "filename": [
        {
            "value": "20201113084525-23f5fd82_0.jpg"
        }
    ],
    "uri": [
        {
            "value": "public:\/\/2021-01\/20201113084525-23f5fd82_0.jpg",
            "url": "\/sites\/default\/files\/2021-01\/20201113084525-23f5fd82_0.jpg"
        }
    ],
    "filemime": [
        {
            "value": "image\/jpeg"
        }
    ],
    "filesize": [
        {
            "value": 47449
        }
    ],
    "status": [
        {
            "value": true
        }
    ],
    "created": [
        {
            "value": "2021-01-13T13:41:43+00:00",
            "format": "Y-m-d\\TH:i:sP"
        }
    ],
    "changed": [
        {
            "value": "2021-01-13T13:41:44+00:00",
            "format": "Y-m-d\\TH:i:sP"
        }
    ]
}