{
    "_links": {
        "self": {
            "href": "http:\/\/meli.bukach.me\/sites\/default\/files\/2020-12\/0003231555W-849x565.jpg"
        },
        "type": {
            "href": "http:\/\/meli.bukach.me\/rest\/type\/file\/file"
        },
        "http:\/\/meli.bukach.me\/rest\/relation\/file\/file\/uid": [
            {
                "href": "http:\/\/meli.bukach.me\/user\/1?_format=hal_json"
            }
        ]
    },
    "uuid": [
        {
            "value": "bae48b9e-912f-4ebf-8c70-af639471a0f1"
        }
    ],
    "langcode": [
        {
            "value": "en"
        }
    ],
    "_embedded": {
        "http:\/\/meli.bukach.me\/rest\/relation\/file\/file\/uid": [
            {
                "_links": {
                    "self": {
                        "href": "http:\/\/meli.bukach.me\/user\/1?_format=hal_json"
                    },
                    "type": {
                        "href": "http:\/\/meli.bukach.me\/rest\/type\/user\/user"
                    }
                },
                "uuid": [
                    {
                        "value": "1cde11b1-b0ca-43fe-997d-8f65fb5000e1"
                    }
                ]
            }
        ]
    },
    "filename": [
        {
            "value": "0003231555W-849x565.jpg"
        }
    ],
    "uri": [
        {
            "value": "public:\/\/2020-12\/0003231555W-849x565.jpg",
            "url": "\/sites\/default\/files\/2020-12\/0003231555W-849x565.jpg"
        }
    ],
    "filemime": [
        {
            "value": "image\/jpeg"
        }
    ],
    "filesize": [
        {
            "value": 362349
        }
    ],
    "status": [
        {
            "value": true
        }
    ],
    "created": [
        {
            "value": "2020-12-30T09:36:06+00:00",
            "format": "Y-m-d\\TH:i:sP"
        }
    ],
    "changed": [
        {
            "value": "2020-12-30T09:37:04+00:00",
            "format": "Y-m-d\\TH:i:sP"
        }
    ]
}