{
    "_links": {
        "self": {
            "href": "http:\/\/meli.bukach.me\/sites\/default\/files\/2021-01\/20201110145033-169140c5.png"
        },
        "type": {
            "href": "http:\/\/meli.bukach.me\/rest\/type\/file\/file"
        },
        "http:\/\/meli.bukach.me\/rest\/relation\/file\/file\/uid": [
            {
                "href": "http:\/\/meli.bukach.me\/user\/46?_format=hal_json"
            }
        ]
    },
    "uuid": [
        {
            "value": "f17ab6de-e08a-46d4-bf93-3719346ffe6d"
        }
    ],
    "langcode": [
        {
            "value": "en"
        }
    ],
    "_embedded": {
        "http:\/\/meli.bukach.me\/rest\/relation\/file\/file\/uid": [
            {
                "_links": {
                    "self": {
                        "href": "http:\/\/meli.bukach.me\/user\/46?_format=hal_json"
                    },
                    "type": {
                        "href": "http:\/\/meli.bukach.me\/rest\/type\/user\/user"
                    }
                },
                "uuid": [
                    {
                        "value": "1662274a-95fa-4f0d-88c0-f625a051ba73"
                    }
                ]
            }
        ]
    },
    "filename": [
        {
            "value": "20201110145033-169140c5.png"
        }
    ],
    "uri": [
        {
            "value": "public:\/\/2021-01\/20201110145033-169140c5.png",
            "url": "\/sites\/default\/files\/2021-01\/20201110145033-169140c5.png"
        }
    ],
    "filemime": [
        {
            "value": "image\/png"
        }
    ],
    "filesize": [
        {
            "value": 21279
        }
    ],
    "status": [
        {
            "value": true
        }
    ],
    "created": [
        {
            "value": "2021-01-08T15:04:55+00:00",
            "format": "Y-m-d\\TH:i:sP"
        }
    ],
    "changed": [
        {
            "value": "2021-01-08T15:04:57+00:00",
            "format": "Y-m-d\\TH:i:sP"
        }
    ]
}