{
    "_links": {
        "self": {
            "href": "http:\/\/meli.bukach.me\/taxonomy\/term\/4?_format=hal_json"
        },
        "type": {
            "href": "http:\/\/meli.bukach.me\/rest\/type\/taxonomy_term\/lesson_category"
        },
        "http:\/\/meli.bukach.me\/rest\/relation\/taxonomy_term\/lesson_category\/parent": [
            {
                "href": "http:\/\/meli.bukach.me\/taxonomy\/term\/5?_format=hal_json"
            }
        ],
        "http:\/\/meli.bukach.me\/rest\/relation\/taxonomy_term\/lesson_category\/content_translation_uid": [
            {
                "href": "http:\/\/meli.bukach.me\/user\/1?_format=hal_json",
                "lang": "en"
            }
        ]
    },
    "uuid": [
        {
            "value": "3bfa7799-d72a-4c08-8298-fdc41cff0996"
        }
    ],
    "langcode": [
        {
            "value": "en",
            "lang": "en"
        }
    ],
    "vid": [
        {
            "target_id": "lesson_category"
        }
    ],
    "revision_created": [
        {
            "value": "2020-12-19T20:13:56+00:00",
            "format": "Y-m-d\\TH:i:sP"
        }
    ],
    "status": [
        {
            "value": true,
            "lang": "en"
        }
    ],
    "name": [
        {
            "value": "Cyber Security",
            "lang": "en"
        }
    ],
    "weight": [
        {
            "value": 0
        }
    ],
    "_embedded": {
        "http:\/\/meli.bukach.me\/rest\/relation\/taxonomy_term\/lesson_category\/parent": [
            {
                "_links": {
                    "self": {
                        "href": "http:\/\/meli.bukach.me\/taxonomy\/term\/5?_format=hal_json"
                    },
                    "type": {
                        "href": "http:\/\/meli.bukach.me\/rest\/type\/taxonomy_term\/lesson_category"
                    }
                },
                "uuid": [
                    {
                        "value": "ecfc8bfd-f61b-4653-ad3a-d0b29b567917"
                    }
                ]
            }
        ],
        "http:\/\/meli.bukach.me\/rest\/relation\/taxonomy_term\/lesson_category\/content_translation_uid": [
            {
                "_links": {
                    "self": {
                        "href": "http:\/\/meli.bukach.me\/user\/1?_format=hal_json"
                    },
                    "type": {
                        "href": "http:\/\/meli.bukach.me\/rest\/type\/user\/user"
                    }
                },
                "uuid": [
                    {
                        "value": "1cde11b1-b0ca-43fe-997d-8f65fb5000e1"
                    }
                ],
                "lang": "en"
            }
        ]
    },
    "changed": [
        {
            "value": "2020-12-30T16:26:18+00:00",
            "lang": "en",
            "format": "Y-m-d\\TH:i:sP"
        }
    ],
    "default_langcode": [
        {
            "value": true,
            "lang": "en"
        }
    ],
    "revision_translation_affected": [
        {
            "value": true,
            "lang": "en"
        }
    ],
    "path": [
        {
            "alias": null,
            "pid": null,
            "langcode": "en",
            "lang": "en"
        }
    ],
    "content_translation_source": [
        {
            "value": "und",
            "lang": "en"
        }
    ],
    "content_translation_outdated": [
        {
            "value": false,
            "lang": "en"
        }
    ],
    "content_translation_created": [
        {
            "value": "2020-12-19T20:13:56+00:00",
            "lang": "en",
            "format": "Y-m-d\\TH:i:sP"
        }
    ]
}