{
    "_links": {
        "self": {
            "href": "http:\/\/meli.bukach.me\/taxonomy\/term\/3?_format=hal_json"
        },
        "type": {
            "href": "http:\/\/meli.bukach.me\/rest\/type\/taxonomy_term\/children_age_group"
        },
        "http:\/\/meli.bukach.me\/rest\/relation\/taxonomy_term\/children_age_group\/parent": [
            null
        ],
        "http:\/\/meli.bukach.me\/rest\/relation\/taxonomy_term\/children_age_group\/content_translation_uid": [
            {
                "href": "http:\/\/meli.bukach.me\/user\/1?_format=hal_json",
                "lang": "en"
            }
        ]
    },
    "uuid": [
        {
            "value": "f1dfa48d-c4d0-4593-a301-d2d8b1312025"
        }
    ],
    "langcode": [
        {
            "value": "en",
            "lang": "en"
        }
    ],
    "vid": [
        {
            "target_id": "children_age_group"
        }
    ],
    "revision_created": [
        {
            "value": "2020-12-19T20:22:53+00:00",
            "format": "Y-m-d\\TH:i:sP"
        }
    ],
    "status": [
        {
            "value": true,
            "lang": "en"
        }
    ],
    "name": [
        {
            "value": "Teenagers (13-18 years old)",
            "lang": "en"
        }
    ],
    "weight": [
        {
            "value": 2
        }
    ],
    "_embedded": {
        "http:\/\/meli.bukach.me\/rest\/relation\/taxonomy_term\/children_age_group\/parent": [
            null
        ],
        "http:\/\/meli.bukach.me\/rest\/relation\/taxonomy_term\/children_age_group\/content_translation_uid": [
            {
                "_links": {
                    "self": {
                        "href": "http:\/\/meli.bukach.me\/user\/1?_format=hal_json"
                    },
                    "type": {
                        "href": "http:\/\/meli.bukach.me\/rest\/type\/user\/user"
                    }
                },
                "uuid": [
                    {
                        "value": "1cde11b1-b0ca-43fe-997d-8f65fb5000e1"
                    }
                ],
                "lang": "en"
            }
        ]
    },
    "changed": [
        {
            "value": "2020-12-23T16:37:05+00:00",
            "lang": "en",
            "format": "Y-m-d\\TH:i:sP"
        }
    ],
    "default_langcode": [
        {
            "value": true,
            "lang": "en"
        }
    ],
    "revision_translation_affected": [
        {
            "value": true,
            "lang": "en"
        }
    ],
    "path": [
        {
            "alias": null,
            "pid": null,
            "langcode": "en",
            "lang": "en"
        }
    ],
    "content_translation_source": [
        {
            "value": "und",
            "lang": "en"
        }
    ],
    "content_translation_outdated": [
        {
            "value": false,
            "lang": "en"
        }
    ],
    "content_translation_created": [
        {
            "value": "2020-12-19T20:22:53+00:00",
            "lang": "en",
            "format": "Y-m-d\\TH:i:sP"
        }
    ]
}