{
    "_links": {
        "self": {
            "href": "http:\/\/meli.bukach.me\/activity\/spot-suspicious-mail?_format=hal_json"
        },
        "type": {
            "href": "http:\/\/meli.bukach.me\/rest\/type\/node\/lesson"
        },
        "http:\/\/meli.bukach.me\/rest\/relation\/node\/lesson\/revision_uid": [
            {
                "href": "http:\/\/meli.bukach.me\/user\/1?_format=hal_json"
            }
        ],
        "http:\/\/meli.bukach.me\/rest\/relation\/node\/lesson\/uid": [
            {
                "href": "http:\/\/meli.bukach.me\/user\/46?_format=hal_json",
                "lang": "en"
            }
        ],
        "http:\/\/meli.bukach.me\/rest\/relation\/node\/lesson\/field_lesson_age_group": [
            {
                "href": "http:\/\/meli.bukach.me\/taxonomy\/term\/1?_format=hal_json"
            }
        ],
        "http:\/\/meli.bukach.me\/rest\/relation\/node\/lesson\/field_lesson_category": [
            {
                "href": "http:\/\/meli.bukach.me\/taxonomy\/term\/5?_format=hal_json"
            }
        ],
        "http:\/\/meli.bukach.me\/rest\/relation\/node\/lesson\/field_lesson_image": [
            {
                "href": "http:\/\/meli.bukach.me\/sites\/default\/files\/2021-01\/20201110161630-67d7bd0b.jpg",
                "lang": "en"
            }
        ],
        "http:\/\/meli.bukach.me\/rest\/relation\/node\/lesson\/field_lesson_subcategory": [
            {
                "href": "http:\/\/meli.bukach.me\/taxonomy\/term\/4?_format=hal_json"
            }
        ]
    },
    "uuid": [
        {
            "value": "35942781-2601-4cba-88c0-d841180e9574"
        }
    ],
    "langcode": [
        {
            "value": "en",
            "lang": "en"
        }
    ],
    "type": [
        {
            "target_id": "lesson"
        }
    ],
    "revision_timestamp": [
        {
            "value": "2021-01-14T18:58:38+00:00",
            "format": "Y-m-d\\TH:i:sP"
        }
    ],
    "_embedded": {
        "http:\/\/meli.bukach.me\/rest\/relation\/node\/lesson\/revision_uid": [
            {
                "_links": {
                    "self": {
                        "href": "http:\/\/meli.bukach.me\/user\/1?_format=hal_json"
                    },
                    "type": {
                        "href": "http:\/\/meli.bukach.me\/rest\/type\/user\/user"
                    }
                },
                "uuid": [
                    {
                        "value": "1cde11b1-b0ca-43fe-997d-8f65fb5000e1"
                    }
                ]
            }
        ],
        "http:\/\/meli.bukach.me\/rest\/relation\/node\/lesson\/uid": [
            {
                "_links": {
                    "self": {
                        "href": "http:\/\/meli.bukach.me\/user\/46?_format=hal_json"
                    },
                    "type": {
                        "href": "http:\/\/meli.bukach.me\/rest\/type\/user\/user"
                    }
                },
                "uuid": [
                    {
                        "value": "1662274a-95fa-4f0d-88c0-f625a051ba73"
                    }
                ],
                "lang": "en"
            }
        ],
        "http:\/\/meli.bukach.me\/rest\/relation\/node\/lesson\/field_lesson_age_group": [
            {
                "_links": {
                    "self": {
                        "href": "http:\/\/meli.bukach.me\/taxonomy\/term\/1?_format=hal_json"
                    },
                    "type": {
                        "href": "http:\/\/meli.bukach.me\/rest\/type\/taxonomy_term\/children_age_group"
                    }
                },
                "uuid": [
                    {
                        "value": "b6cefbc4-6de2-4f66-81e7-990e86287d8f"
                    }
                ]
            }
        ],
        "http:\/\/meli.bukach.me\/rest\/relation\/node\/lesson\/field_lesson_category": [
            {
                "_links": {
                    "self": {
                        "href": "http:\/\/meli.bukach.me\/taxonomy\/term\/5?_format=hal_json"
                    },
                    "type": {
                        "href": "http:\/\/meli.bukach.me\/rest\/type\/taxonomy_term\/lesson_category"
                    }
                },
                "uuid": [
                    {
                        "value": "ecfc8bfd-f61b-4653-ad3a-d0b29b567917"
                    }
                ]
            }
        ],
        "http:\/\/meli.bukach.me\/rest\/relation\/node\/lesson\/field_lesson_image": [
            {
                "_links": {
                    "self": {
                        "href": "http:\/\/meli.bukach.me\/sites\/default\/files\/2021-01\/20201110161630-67d7bd0b.jpg"
                    },
                    "type": {
                        "href": "http:\/\/meli.bukach.me\/rest\/type\/file\/file"
                    }
                },
                "uuid": [
                    {
                        "value": "2655fa0f-d5ad-4cee-afb8-e2b9ec036039"
                    }
                ],
                "lang": "en"
            }
        ],
        "http:\/\/meli.bukach.me\/rest\/relation\/node\/lesson\/field_lesson_subcategory": [
            {
                "_links": {
                    "self": {
                        "href": "http:\/\/meli.bukach.me\/taxonomy\/term\/4?_format=hal_json"
                    },
                    "type": {
                        "href": "http:\/\/meli.bukach.me\/rest\/type\/taxonomy_term\/lesson_category"
                    }
                },
                "uuid": [
                    {
                        "value": "3bfa7799-d72a-4c08-8298-fdc41cff0996"
                    }
                ]
            }
        ]
    },
    "status": [
        {
            "value": true,
            "lang": "en"
        }
    ],
    "title": [
        {
            "value": "Spot suspicious mail",
            "lang": "en"
        }
    ],
    "created": [
        {
            "value": "2021-01-11T08:19:12+00:00",
            "lang": "en",
            "format": "Y-m-d\\TH:i:sP"
        }
    ],
    "changed": [
        {
            "value": "2021-01-14T18:58:38+00:00",
            "lang": "en",
            "format": "Y-m-d\\TH:i:sP"
        }
    ],
    "promote": [
        {
            "value": false,
            "lang": "en"
        }
    ],
    "sticky": [
        {
            "value": false,
            "lang": "en"
        }
    ],
    "default_langcode": [
        {
            "value": true,
            "lang": "en"
        }
    ],
    "revision_translation_affected": [
        {
            "value": true,
            "lang": "en"
        }
    ],
    "path": [
        {
            "alias": "\/activity\/spot-suspicious-mail",
            "pid": 246,
            "langcode": "en",
            "lang": "en"
        }
    ],
    "content_translation_source": [
        {
            "value": "und",
            "lang": "en"
        }
    ],
    "content_translation_outdated": [
        {
            "value": false,
            "lang": "en"
        }
    ],
    "field_lesson_audience": [
        {
            "value": "Family"
        }
    ],
    "field_lesson_difficulty": [
        {
            "value": "Intermediate"
        }
    ],
    "field_lesson_duration": [
        {
            "value": "Under 5 minutes"
        }
    ],
    "field_lesson_headphones": [
        {
            "value": false
        }
    ],
    "field_lesson_quiz": [
        {
            "answer": "Yes it's from his brother so it is safe ",
            "correct": "0",
            "lang": "en"
        },
        {
            "answer": "Yes because he is curious to learn more ",
            "correct": "0",
            "lang": "en"
        },
        {
            "answer": "No it seems that his brother's email account has been hacked",
            "correct": "1",
            "lang": "en"
        }
    ],
    "field_lesson_quiz_question": [
        {
            "value": "<p><strong>Scenario<\/strong>: Justin recently created an email account so to be able to download different applications on his phone or tablet. He got an email from his brother Mark in a different language. The email includes a link with the title 'OPEN THE LINK TO FIND OUT MORE ABOUT TROY'. Should Justin open the link? &nbsp;&nbsp;<\/p>\r\n",
            "format": "basic_html",
            "processed": "<p><strong>Scenario<\/strong>: Justin recently created an email account so to be able to download different applications on his phone or tablet. He got an email from his brother Mark in a different language. The email includes a link with the title 'OPEN THE LINK TO FIND OUT MORE ABOUT TROY'. Should Justin open the link? \u00a0\u00a0<\/p>",
            "lang": "en"
        }
    ],
    "field_lesson_references": [
        {
            "uri": "route:<nolink>",
            "title": "Kaspersky. Smartphone Security. https:\/\/www.kaspersky.com\/resource-center\/threats\/smartphones",
            "options": []
        },
        {
            "uri": "route:<nolink>",
            "title": "Image source: Photo by Stephen Phillips - Hostreviews.co.uk on Unsplash",
            "options": []
        }
    ],
    "field_lesson_type": [
        {
            "value": "quiz"
        }
    ]
}