{
    "_links": {
        "self": {
            "href": "http:\/\/meli.bukach.me\/activity\/privacy-social-media?_format=hal_json"
        },
        "type": {
            "href": "http:\/\/meli.bukach.me\/rest\/type\/node\/lesson"
        },
        "http:\/\/meli.bukach.me\/rest\/relation\/node\/lesson\/revision_uid": [
            {
                "href": "http:\/\/meli.bukach.me\/user\/46?_format=hal_json"
            }
        ],
        "http:\/\/meli.bukach.me\/rest\/relation\/node\/lesson\/uid": [
            {
                "href": "http:\/\/meli.bukach.me\/user\/46?_format=hal_json",
                "lang": "en"
            }
        ],
        "http:\/\/meli.bukach.me\/rest\/relation\/node\/lesson\/field_lesson_category": [
            {
                "href": "http:\/\/meli.bukach.me\/taxonomy\/term\/5?_format=hal_json"
            }
        ],
        "http:\/\/meli.bukach.me\/rest\/relation\/node\/lesson\/field_lesson_image": [
            {
                "href": "http:\/\/meli.bukach.me\/sites\/default\/files\/2021-01\/20201110144231-14497dbc_0.jpg",
                "lang": "en"
            }
        ],
        "http:\/\/meli.bukach.me\/rest\/relation\/node\/lesson\/field_lesson_subcategory": [
            {
                "href": "http:\/\/meli.bukach.me\/taxonomy\/term\/23?_format=hal_json"
            }
        ]
    },
    "uuid": [
        {
            "value": "5a0a3f8d-4808-4b98-a9e9-3ef2ad28c03f"
        }
    ],
    "langcode": [
        {
            "value": "en",
            "lang": "en"
        }
    ],
    "type": [
        {
            "target_id": "lesson"
        }
    ],
    "revision_timestamp": [
        {
            "value": "2021-01-08T14:38:14+00:00",
            "format": "Y-m-d\\TH:i:sP"
        }
    ],
    "_embedded": {
        "http:\/\/meli.bukach.me\/rest\/relation\/node\/lesson\/revision_uid": [
            {
                "_links": {
                    "self": {
                        "href": "http:\/\/meli.bukach.me\/user\/46?_format=hal_json"
                    },
                    "type": {
                        "href": "http:\/\/meli.bukach.me\/rest\/type\/user\/user"
                    }
                },
                "uuid": [
                    {
                        "value": "1662274a-95fa-4f0d-88c0-f625a051ba73"
                    }
                ]
            }
        ],
        "http:\/\/meli.bukach.me\/rest\/relation\/node\/lesson\/uid": [
            {
                "_links": {
                    "self": {
                        "href": "http:\/\/meli.bukach.me\/user\/46?_format=hal_json"
                    },
                    "type": {
                        "href": "http:\/\/meli.bukach.me\/rest\/type\/user\/user"
                    }
                },
                "uuid": [
                    {
                        "value": "1662274a-95fa-4f0d-88c0-f625a051ba73"
                    }
                ],
                "lang": "en"
            }
        ],
        "http:\/\/meli.bukach.me\/rest\/relation\/node\/lesson\/field_lesson_category": [
            {
                "_links": {
                    "self": {
                        "href": "http:\/\/meli.bukach.me\/taxonomy\/term\/5?_format=hal_json"
                    },
                    "type": {
                        "href": "http:\/\/meli.bukach.me\/rest\/type\/taxonomy_term\/lesson_category"
                    }
                },
                "uuid": [
                    {
                        "value": "ecfc8bfd-f61b-4653-ad3a-d0b29b567917"
                    }
                ]
            }
        ],
        "http:\/\/meli.bukach.me\/rest\/relation\/node\/lesson\/field_lesson_image": [
            {
                "_links": {
                    "self": {
                        "href": "http:\/\/meli.bukach.me\/sites\/default\/files\/2021-01\/20201110144231-14497dbc_0.jpg"
                    },
                    "type": {
                        "href": "http:\/\/meli.bukach.me\/rest\/type\/file\/file"
                    }
                },
                "uuid": [
                    {
                        "value": "92f54ebd-17a7-4e9f-893f-3e469c03cfd2"
                    }
                ],
                "lang": "en"
            }
        ],
        "http:\/\/meli.bukach.me\/rest\/relation\/node\/lesson\/field_lesson_subcategory": [
            {
                "_links": {
                    "self": {
                        "href": "http:\/\/meli.bukach.me\/taxonomy\/term\/23?_format=hal_json"
                    },
                    "type": {
                        "href": "http:\/\/meli.bukach.me\/rest\/type\/taxonomy_term\/lesson_category"
                    }
                },
                "uuid": [
                    {
                        "value": "519e9b3e-e384-4a40-b77a-1d2b63d3f246"
                    }
                ]
            }
        ]
    },
    "status": [
        {
            "value": true,
            "lang": "en"
        }
    ],
    "title": [
        {
            "value": "Privacy on Social Media",
            "lang": "en"
        }
    ],
    "created": [
        {
            "value": "2021-01-08T14:35:51+00:00",
            "lang": "en",
            "format": "Y-m-d\\TH:i:sP"
        }
    ],
    "changed": [
        {
            "value": "2021-01-08T14:38:14+00:00",
            "lang": "en",
            "format": "Y-m-d\\TH:i:sP"
        }
    ],
    "promote": [
        {
            "value": false,
            "lang": "en"
        }
    ],
    "sticky": [
        {
            "value": false,
            "lang": "en"
        }
    ],
    "default_langcode": [
        {
            "value": true,
            "lang": "en"
        }
    ],
    "revision_translation_affected": [
        {
            "value": true,
            "lang": "en"
        }
    ],
    "path": [
        {
            "alias": "\/activity\/privacy-social-media",
            "pid": 232,
            "langcode": "en",
            "lang": "en"
        }
    ],
    "content_translation_source": [
        {
            "value": "und",
            "lang": "en"
        }
    ],
    "content_translation_outdated": [
        {
            "value": false,
            "lang": "en"
        }
    ],
    "field_lesson_audience": [
        {
            "value": "Parents"
        }
    ],
    "field_lesson_description": [
        {
            "value": "<p><strong>STEP 1<\/strong>: If you or your children create an account on social media, configure their profile&amp;rsquo;s privacy settings so that they have better control over what others can see on their profile. Hide their activity from non-friends.&nbsp;<\/p>\r\n\r\n<p><strong>STEP 2<\/strong>: Configurate the settings so that your authorisation is required before things are posted on your\/their profile by others.<\/p>\r\n\r\n<p><strong>STEP 3:<\/strong> Don't link different accounts together. &nbsp; &nbsp; &nbsp; &nbsp; &nbsp; &nbsp; &nbsp; &nbsp; &nbsp; &nbsp; &nbsp; &nbsp; &nbsp; &nbsp; &nbsp;<\/p>\r\n\r\n<p><strong>STEP 4:<\/strong> Read Terms and Conditions. &nbsp; &nbsp; &nbsp; &nbsp; &nbsp; &nbsp; &nbsp; &nbsp; &nbsp; &nbsp; &nbsp; &nbsp; &nbsp; &nbsp; &nbsp; &nbsp; &nbsp; &nbsp; &nbsp; &nbsp; &nbsp; &nbsp; &nbsp; &nbsp; &nbsp; &nbsp; &nbsp; &nbsp; &nbsp; &nbsp; &nbsp; &nbsp; &nbsp; &nbsp; &nbsp; &nbsp; &nbsp; &nbsp; &nbsp; &nbsp; &nbsp; &nbsp;<\/p>\r\n\r\n<p><strong>STEP 5<\/strong>: Uninstall applications you don't need or use.<br \/>\r\n&nbsp;<\/p>\r\n",
            "format": "basic_html",
            "processed": "<p><strong>STEP 1<\/strong>: If you or your children create an account on social media, configure their profile&amp;rsquo;s privacy settings so that they have better control over what others can see on their profile. Hide their activity from non-friends.\u00a0<\/p>\n\n<p><strong>STEP 2<\/strong>: Configurate the settings so that your authorisation is required before things are posted on your\/their profile by others.<\/p>\n\n<p><strong>STEP 3:<\/strong> Don't link different accounts together. \u00a0 \u00a0 \u00a0 \u00a0 \u00a0 \u00a0 \u00a0 \u00a0 \u00a0 \u00a0 \u00a0 \u00a0 \u00a0 \u00a0 \u00a0<\/p>\n\n<p><strong>STEP 4:<\/strong> Read Terms and Conditions. \u00a0 \u00a0 \u00a0 \u00a0 \u00a0 \u00a0 \u00a0 \u00a0 \u00a0 \u00a0 \u00a0 \u00a0 \u00a0 \u00a0 \u00a0 \u00a0 \u00a0 \u00a0 \u00a0 \u00a0 \u00a0 \u00a0 \u00a0 \u00a0 \u00a0 \u00a0 \u00a0 \u00a0 \u00a0 \u00a0 \u00a0 \u00a0 \u00a0 \u00a0 \u00a0 \u00a0 \u00a0 \u00a0 \u00a0 \u00a0 \u00a0 \u00a0<\/p>\n\n<p><strong>STEP 5<\/strong>: Uninstall applications you don't need or use.<br \/>\n\u00a0<\/p>",
            "lang": "en"
        }
    ],
    "field_lesson_difficulty": [
        {
            "value": "Advanced"
        }
    ],
    "field_lesson_duration": [
        {
            "value": "Under 5 minutes"
        }
    ],
    "field_lesson_headphones": [
        {
            "value": false
        }
    ],
    "field_lesson_references": [
        {
            "uri": "route:<nolink>",
            "title": "Social Pilot. The Ultimate Guide on How to Manage Social Media Privacy Settings. https:\/\/www.socialpilot.co\/blog\/ultimate-guide-manage-social-media-privacy-settings",
            "options": []
        },
        {
            "uri": "route:<nolink>",
            "title": "Image source: www.pexels.com",
            "options": []
        }
    ],
    "field_lesson_type": [
        {
            "value": "tips"
        }
    ]
}