{
    "_links": {
        "self": {
            "href": "http:\/\/meli.bukach.me\/activity\/friend-request?_format=hal_json"
        },
        "type": {
            "href": "http:\/\/meli.bukach.me\/rest\/type\/node\/lesson"
        },
        "http:\/\/meli.bukach.me\/rest\/relation\/node\/lesson\/revision_uid": [
            {
                "href": "http:\/\/meli.bukach.me\/user\/46?_format=hal_json"
            }
        ],
        "http:\/\/meli.bukach.me\/rest\/relation\/node\/lesson\/uid": [
            {
                "href": "http:\/\/meli.bukach.me\/user\/46?_format=hal_json",
                "lang": "en"
            }
        ],
        "http:\/\/meli.bukach.me\/rest\/relation\/node\/lesson\/field_lesson_age_group": [
            {
                "href": "http:\/\/meli.bukach.me\/taxonomy\/term\/3?_format=hal_json"
            }
        ],
        "http:\/\/meli.bukach.me\/rest\/relation\/node\/lesson\/field_lesson_category": [
            {
                "href": "http:\/\/meli.bukach.me\/taxonomy\/term\/5?_format=hal_json"
            }
        ],
        "http:\/\/meli.bukach.me\/rest\/relation\/node\/lesson\/field_lesson_image": [
            {
                "href": "http:\/\/meli.bukach.me\/sites\/default\/files\/2021-01\/20201113084516-568ab4be.jpg",
                "lang": "en"
            }
        ],
        "http:\/\/meli.bukach.me\/rest\/relation\/node\/lesson\/field_lesson_subcategory": [
            {
                "href": "http:\/\/meli.bukach.me\/taxonomy\/term\/6?_format=hal_json"
            }
        ]
    },
    "uuid": [
        {
            "value": "877c996d-85b6-4ab6-9bc8-788f4be690ae"
        }
    ],
    "langcode": [
        {
            "value": "en",
            "lang": "en"
        }
    ],
    "type": [
        {
            "target_id": "lesson"
        }
    ],
    "revision_timestamp": [
        {
            "value": "2021-01-12T08:19:54+00:00",
            "format": "Y-m-d\\TH:i:sP"
        }
    ],
    "_embedded": {
        "http:\/\/meli.bukach.me\/rest\/relation\/node\/lesson\/revision_uid": [
            {
                "_links": {
                    "self": {
                        "href": "http:\/\/meli.bukach.me\/user\/46?_format=hal_json"
                    },
                    "type": {
                        "href": "http:\/\/meli.bukach.me\/rest\/type\/user\/user"
                    }
                },
                "uuid": [
                    {
                        "value": "1662274a-95fa-4f0d-88c0-f625a051ba73"
                    }
                ]
            }
        ],
        "http:\/\/meli.bukach.me\/rest\/relation\/node\/lesson\/uid": [
            {
                "_links": {
                    "self": {
                        "href": "http:\/\/meli.bukach.me\/user\/46?_format=hal_json"
                    },
                    "type": {
                        "href": "http:\/\/meli.bukach.me\/rest\/type\/user\/user"
                    }
                },
                "uuid": [
                    {
                        "value": "1662274a-95fa-4f0d-88c0-f625a051ba73"
                    }
                ],
                "lang": "en"
            }
        ],
        "http:\/\/meli.bukach.me\/rest\/relation\/node\/lesson\/field_lesson_age_group": [
            {
                "_links": {
                    "self": {
                        "href": "http:\/\/meli.bukach.me\/taxonomy\/term\/3?_format=hal_json"
                    },
                    "type": {
                        "href": "http:\/\/meli.bukach.me\/rest\/type\/taxonomy_term\/children_age_group"
                    }
                },
                "uuid": [
                    {
                        "value": "f1dfa48d-c4d0-4593-a301-d2d8b1312025"
                    }
                ]
            }
        ],
        "http:\/\/meli.bukach.me\/rest\/relation\/node\/lesson\/field_lesson_category": [
            {
                "_links": {
                    "self": {
                        "href": "http:\/\/meli.bukach.me\/taxonomy\/term\/5?_format=hal_json"
                    },
                    "type": {
                        "href": "http:\/\/meli.bukach.me\/rest\/type\/taxonomy_term\/lesson_category"
                    }
                },
                "uuid": [
                    {
                        "value": "ecfc8bfd-f61b-4653-ad3a-d0b29b567917"
                    }
                ]
            }
        ],
        "http:\/\/meli.bukach.me\/rest\/relation\/node\/lesson\/field_lesson_image": [
            {
                "_links": {
                    "self": {
                        "href": "http:\/\/meli.bukach.me\/sites\/default\/files\/2021-01\/20201113084516-568ab4be.jpg"
                    },
                    "type": {
                        "href": "http:\/\/meli.bukach.me\/rest\/type\/file\/file"
                    }
                },
                "uuid": [
                    {
                        "value": "3537d1df-f31d-4de6-9e09-71ba7d20b556"
                    }
                ],
                "lang": "en"
            }
        ],
        "http:\/\/meli.bukach.me\/rest\/relation\/node\/lesson\/field_lesson_subcategory": [
            {
                "_links": {
                    "self": {
                        "href": "http:\/\/meli.bukach.me\/taxonomy\/term\/6?_format=hal_json"
                    },
                    "type": {
                        "href": "http:\/\/meli.bukach.me\/rest\/type\/taxonomy_term\/lesson_category"
                    }
                },
                "uuid": [
                    {
                        "value": "bd0217d4-7f6a-4c39-9832-7200799298d2"
                    }
                ]
            }
        ]
    },
    "status": [
        {
            "value": true,
            "lang": "en"
        }
    ],
    "title": [
        {
            "value": "Friend Request",
            "lang": "en"
        }
    ],
    "created": [
        {
            "value": "2021-01-12T08:16:07+00:00",
            "lang": "en",
            "format": "Y-m-d\\TH:i:sP"
        }
    ],
    "changed": [
        {
            "value": "2021-01-12T08:19:54+00:00",
            "lang": "en",
            "format": "Y-m-d\\TH:i:sP"
        }
    ],
    "promote": [
        {
            "value": false,
            "lang": "en"
        }
    ],
    "sticky": [
        {
            "value": false,
            "lang": "en"
        }
    ],
    "default_langcode": [
        {
            "value": true,
            "lang": "en"
        }
    ],
    "revision_translation_affected": [
        {
            "value": true,
            "lang": "en"
        }
    ],
    "path": [
        {
            "alias": "\/activity\/friend-request",
            "pid": 259,
            "langcode": "en",
            "lang": "en"
        }
    ],
    "content_translation_source": [
        {
            "value": "und",
            "lang": "en"
        }
    ],
    "content_translation_outdated": [
        {
            "value": false,
            "lang": "en"
        }
    ],
    "field_lesson_audience": [
        {
            "value": "Family"
        }
    ],
    "field_lesson_description": [
        {
            "value": "<p>Scenario:<br \/>\r\nTina is 16 years old and has recently accepted a friend request from a stranger on Facebook. She has been communicating with the stranger daily and she enjoys talking to him. They have exchanged numbers and sent pictures of each other back and forth and now he is asking her to meet in person but he also asks Tina to keep it as a secret. He tells her that he can pick her up with his car when her parents are away. Tina finds strange the fact that he doensn't to reveal to her friends that they will go out. What should Tina do? &nbsp;<\/p>\r\n",
            "format": "basic_html",
            "processed": "<p>Scenario:<br \/>\nTina is 16 years old and has recently accepted a friend request from a stranger on Facebook. She has been communicating with the stranger daily and she enjoys talking to him. They have exchanged numbers and sent pictures of each other back and forth and now he is asking her to meet in person but he also asks Tina to keep it as a secret. He tells her that he can pick her up with his car when her parents are away. Tina finds strange the fact that he doensn't to reveal to her friends that they will go out. What should Tina do? \u00a0<\/p>",
            "lang": "en"
        }
    ],
    "field_lesson_difficulty": [
        {
            "value": "Intermediate"
        }
    ],
    "field_lesson_duration": [
        {
            "value": "Under 5 minutes"
        }
    ],
    "field_lesson_headphones": [
        {
            "value": false
        }
    ],
    "field_lesson_quiz": [
        {
            "answer": "Meet him anyway ",
            "correct": "0",
            "lang": "en"
        },
        {
            "answer": "Talk with her friends about it and ask their opinion",
            "correct": "0",
            "lang": "en"
        },
        {
            "answer": "Report him to the autorities and not talk to him again",
            "correct": "1",
            "lang": "en"
        }
    ],
    "field_lesson_references": [
        {
            "uri": "route:<nolink>",
            "title": "UK Council for child Internet Safety. (2017). Children's online activities, risks and safety. https:\/\/www.lse.ac.uk\/business-and-consultancy\/consulting\/assets\/documents\/childrens-online-activities-risks-and-safety.pdf",
            "options": []
        },
        {
            "uri": "route:<nolink>",
            "title": "Image source: Photo by Katleen Vanacker on Unsplash",
            "options": []
        }
    ],
    "field_lesson_type": [
        {
            "value": "discussion"
        }
    ]
}