{
    "_links": {
        "self": {
            "href": "http:\/\/meli.bukach.me\/activity\/cookie-control?_format=hal_json"
        },
        "type": {
            "href": "http:\/\/meli.bukach.me\/rest\/type\/node\/lesson"
        },
        "http:\/\/meli.bukach.me\/rest\/relation\/node\/lesson\/revision_uid": [
            {
                "href": "http:\/\/meli.bukach.me\/user\/46?_format=hal_json"
            }
        ],
        "http:\/\/meli.bukach.me\/rest\/relation\/node\/lesson\/uid": [
            {
                "href": "http:\/\/meli.bukach.me\/user\/46?_format=hal_json",
                "lang": "en"
            }
        ],
        "http:\/\/meli.bukach.me\/rest\/relation\/node\/lesson\/field_lesson_category": [
            {
                "href": "http:\/\/meli.bukach.me\/taxonomy\/term\/5?_format=hal_json"
            }
        ],
        "http:\/\/meli.bukach.me\/rest\/relation\/node\/lesson\/field_lesson_image": [
            {
                "href": "http:\/\/meli.bukach.me\/sites\/default\/files\/2021-01\/20201110145031-0c75674e-la.jpg",
                "lang": "en"
            }
        ],
        "http:\/\/meli.bukach.me\/rest\/relation\/node\/lesson\/field_lesson_subcategory": [
            {
                "href": "http:\/\/meli.bukach.me\/taxonomy\/term\/23?_format=hal_json"
            }
        ]
    },
    "uuid": [
        {
            "value": "99caf12d-beb1-4d8e-be20-d604e24c2f2b"
        }
    ],
    "langcode": [
        {
            "value": "en",
            "lang": "en"
        }
    ],
    "type": [
        {
            "target_id": "lesson"
        }
    ],
    "revision_timestamp": [
        {
            "value": "2021-01-08T15:01:37+00:00",
            "format": "Y-m-d\\TH:i:sP"
        }
    ],
    "_embedded": {
        "http:\/\/meli.bukach.me\/rest\/relation\/node\/lesson\/revision_uid": [
            {
                "_links": {
                    "self": {
                        "href": "http:\/\/meli.bukach.me\/user\/46?_format=hal_json"
                    },
                    "type": {
                        "href": "http:\/\/meli.bukach.me\/rest\/type\/user\/user"
                    }
                },
                "uuid": [
                    {
                        "value": "1662274a-95fa-4f0d-88c0-f625a051ba73"
                    }
                ]
            }
        ],
        "http:\/\/meli.bukach.me\/rest\/relation\/node\/lesson\/uid": [
            {
                "_links": {
                    "self": {
                        "href": "http:\/\/meli.bukach.me\/user\/46?_format=hal_json"
                    },
                    "type": {
                        "href": "http:\/\/meli.bukach.me\/rest\/type\/user\/user"
                    }
                },
                "uuid": [
                    {
                        "value": "1662274a-95fa-4f0d-88c0-f625a051ba73"
                    }
                ],
                "lang": "en"
            }
        ],
        "http:\/\/meli.bukach.me\/rest\/relation\/node\/lesson\/field_lesson_category": [
            {
                "_links": {
                    "self": {
                        "href": "http:\/\/meli.bukach.me\/taxonomy\/term\/5?_format=hal_json"
                    },
                    "type": {
                        "href": "http:\/\/meli.bukach.me\/rest\/type\/taxonomy_term\/lesson_category"
                    }
                },
                "uuid": [
                    {
                        "value": "ecfc8bfd-f61b-4653-ad3a-d0b29b567917"
                    }
                ]
            }
        ],
        "http:\/\/meli.bukach.me\/rest\/relation\/node\/lesson\/field_lesson_image": [
            {
                "_links": {
                    "self": {
                        "href": "http:\/\/meli.bukach.me\/sites\/default\/files\/2021-01\/20201110145031-0c75674e-la.jpg"
                    },
                    "type": {
                        "href": "http:\/\/meli.bukach.me\/rest\/type\/file\/file"
                    }
                },
                "uuid": [
                    {
                        "value": "1ba02914-66e7-4225-94b9-5e5da3bcf302"
                    }
                ],
                "lang": "en"
            }
        ],
        "http:\/\/meli.bukach.me\/rest\/relation\/node\/lesson\/field_lesson_subcategory": [
            {
                "_links": {
                    "self": {
                        "href": "http:\/\/meli.bukach.me\/taxonomy\/term\/23?_format=hal_json"
                    },
                    "type": {
                        "href": "http:\/\/meli.bukach.me\/rest\/type\/taxonomy_term\/lesson_category"
                    }
                },
                "uuid": [
                    {
                        "value": "519e9b3e-e384-4a40-b77a-1d2b63d3f246"
                    }
                ]
            }
        ]
    },
    "status": [
        {
            "value": true,
            "lang": "en"
        }
    ],
    "title": [
        {
            "value": "Cookie Control",
            "lang": "en"
        }
    ],
    "created": [
        {
            "value": "2021-01-08T14:55:40+00:00",
            "lang": "en",
            "format": "Y-m-d\\TH:i:sP"
        }
    ],
    "changed": [
        {
            "value": "2021-01-08T15:01:37+00:00",
            "lang": "en",
            "format": "Y-m-d\\TH:i:sP"
        }
    ],
    "promote": [
        {
            "value": false,
            "lang": "en"
        }
    ],
    "sticky": [
        {
            "value": false,
            "lang": "en"
        }
    ],
    "default_langcode": [
        {
            "value": true,
            "lang": "en"
        }
    ],
    "revision_translation_affected": [
        {
            "value": true,
            "lang": "en"
        }
    ],
    "path": [
        {
            "alias": "\/activity\/cookie-control",
            "pid": 236,
            "langcode": "en",
            "lang": "en"
        }
    ],
    "content_translation_source": [
        {
            "value": "und",
            "lang": "en"
        }
    ],
    "content_translation_outdated": [
        {
            "value": false,
            "lang": "en"
        }
    ],
    "field_lesson_audience": [
        {
            "value": "Parents"
        }
    ],
    "field_lesson_description": [
        {
            "value": "<p><span><span><span><span><span><span><strong><span><span><span>To disable cookies:<\/span><\/span><\/span><\/strong><\/span><\/span><\/span><\/span><\/span><\/span><\/p>\r\n\r\n<p><span><span><span><span><span><span><strong><span><span><span>STEP 1:<\/span><\/span><\/span><\/strong><\/span><span><span><span><span><span> While navigating on google chrome go to the 'tools menu'.&nbsp;&nbsp;&nbsp;&nbsp;&nbsp;&nbsp;&nbsp;&nbsp;&nbsp;&nbsp;&nbsp;&nbsp;&nbsp;&nbsp;&nbsp;&nbsp;&nbsp;&nbsp;&nbsp;&nbsp;&nbsp;&nbsp;&nbsp;&nbsp;&nbsp;&nbsp;&nbsp;&nbsp;&nbsp;&nbsp;&nbsp;&nbsp;&nbsp;&nbsp;&nbsp;&nbsp;&nbsp;&nbsp;&nbsp;&nbsp;&nbsp;&nbsp;&nbsp;&nbsp;&nbsp;&nbsp;&nbsp;&nbsp;<\/span><\/span><\/span><\/span><\/span><\/span><\/span><\/span><\/span><\/span><\/p>\r\n\r\n<p><span><span><span><span><span><span><strong><span><span><span>STEP 2:<\/span><\/span><\/span><\/strong><span><span><span><span> Click on&nbsp;'Options'<\/span><\/span><\/span><\/span><\/span><\/span><\/span><\/span><\/span><\/span><span><span><span><span><span><span><span><span><span><span>&nbsp; &nbsp; &nbsp; &nbsp; &nbsp; &nbsp; &nbsp; &nbsp; &nbsp; &nbsp; &nbsp; &nbsp; &nbsp; &nbsp; &nbsp; &nbsp; &nbsp; &nbsp; &nbsp; &nbsp; &nbsp; &nbsp; &nbsp; &nbsp; &nbsp; &nbsp; &nbsp; &nbsp; &nbsp; &nbsp; &nbsp; &nbsp; &nbsp; &nbsp; &nbsp; &nbsp; &nbsp; &nbsp; &nbsp; &nbsp; &nbsp; &nbsp; &nbsp; &nbsp; &nbsp; &nbsp; &nbsp; &nbsp; &nbsp; &nbsp; &nbsp; &nbsp; &nbsp; &nbsp; &nbsp; &nbsp; &nbsp; &nbsp; &nbsp; &nbsp; &nbsp; &nbsp; <\/span><\/span><\/span><\/span><\/span><\/span><\/span><\/span><\/span><\/span><\/p>\r\n\r\n<p><span><span><span><span><span><span><strong><span><span><span>STEP 3:<\/span><\/span><\/span><\/strong><\/span><span><span><span><span><span> Click on 'Under the Hood'.&nbsp;&nbsp;&nbsp;&nbsp;&nbsp;&nbsp;&nbsp;&nbsp;&nbsp;&nbsp;&nbsp;&nbsp;&nbsp;&nbsp;&nbsp;&nbsp;&nbsp;&nbsp;&nbsp;&nbsp;&nbsp;&nbsp;&nbsp;&nbsp;&nbsp;&nbsp;&nbsp;&nbsp;&nbsp;&nbsp;&nbsp;&nbsp;&nbsp;&nbsp;&nbsp;&nbsp;&nbsp;&nbsp;&nbsp;&nbsp;&nbsp;&nbsp;&nbsp;&nbsp;&nbsp;&nbsp;&nbsp;&nbsp;&nbsp;&nbsp;&nbsp;&nbsp;&nbsp;&nbsp;&nbsp;&nbsp;&nbsp;&nbsp;&nbsp;&nbsp;&nbsp;&nbsp;&nbsp;&nbsp;&nbsp;&nbsp;&nbsp;&nbsp;&nbsp;&nbsp;&nbsp;&nbsp;&nbsp;&nbsp;&nbsp;&nbsp;&nbsp;&nbsp;&nbsp;&nbsp;&nbsp;&nbsp;&nbsp;&nbsp;&nbsp;&nbsp;<\/span><\/span><\/span><\/span><\/span><\/span><\/span><\/span><\/span><\/span><\/p>\r\n\r\n<p><span><span><span><span><span><span><strong><span><span><span>STEP 4: <\/span><\/span><\/span><\/strong><\/span><span><span><span><span><span>Select 'Cookie Setting' and 'Block all Cookies'.<\/span><\/span><\/span><\/span><\/span><\/span><\/span><\/span><\/span><\/span><\/p>\r\n",
            "format": "basic_html",
            "processed": "<p><span><span><span><span><span><span><strong><span><span><span>To disable cookies:<\/span><\/span><\/span><\/strong><\/span><\/span><\/span><\/span><\/span><\/span><\/p>\n\n<p><span><span><span><span><span><span><strong><span><span><span>STEP 1:<\/span><\/span><\/span><\/strong><\/span><span><span><span><span><span> While navigating on google chrome go to the 'tools menu'.\u00a0\u00a0\u00a0\u00a0\u00a0\u00a0\u00a0\u00a0\u00a0\u00a0\u00a0\u00a0\u00a0\u00a0\u00a0\u00a0\u00a0\u00a0\u00a0\u00a0\u00a0\u00a0\u00a0\u00a0\u00a0\u00a0\u00a0\u00a0\u00a0\u00a0\u00a0\u00a0\u00a0\u00a0\u00a0\u00a0\u00a0\u00a0\u00a0\u00a0\u00a0\u00a0\u00a0\u00a0\u00a0\u00a0\u00a0\u00a0<\/span><\/span><\/span><\/span><\/span><\/span><\/span><\/span><\/span><\/span><\/p>\n\n<p><span><span><span><span><span><span><strong><span><span><span>STEP 2:<\/span><\/span><\/span><\/strong><span><span><span><span> Click on\u00a0'Options'<\/span><\/span><\/span><\/span><\/span><\/span><\/span><\/span><\/span><\/span><span><span><span><span><span><span><span><span><span><span>\u00a0 \u00a0 \u00a0 \u00a0 \u00a0 \u00a0 \u00a0 \u00a0 \u00a0 \u00a0 \u00a0 \u00a0 \u00a0 \u00a0 \u00a0 \u00a0 \u00a0 \u00a0 \u00a0 \u00a0 \u00a0 \u00a0 \u00a0 \u00a0 \u00a0 \u00a0 \u00a0 \u00a0 \u00a0 \u00a0 \u00a0 \u00a0 \u00a0 \u00a0 \u00a0 \u00a0 \u00a0 \u00a0 \u00a0 \u00a0 \u00a0 \u00a0 \u00a0 \u00a0 \u00a0 \u00a0 \u00a0 \u00a0 \u00a0 \u00a0 \u00a0 \u00a0 \u00a0 \u00a0 \u00a0 \u00a0 \u00a0 \u00a0 \u00a0 \u00a0 \u00a0 \u00a0 <\/span><\/span><\/span><\/span><\/span><\/span><\/span><\/span><\/span><\/span><\/p>\n\n<p><span><span><span><span><span><span><strong><span><span><span>STEP 3:<\/span><\/span><\/span><\/strong><\/span><span><span><span><span><span> Click on 'Under the Hood'.\u00a0\u00a0\u00a0\u00a0\u00a0\u00a0\u00a0\u00a0\u00a0\u00a0\u00a0\u00a0\u00a0\u00a0\u00a0\u00a0\u00a0\u00a0\u00a0\u00a0\u00a0\u00a0\u00a0\u00a0\u00a0\u00a0\u00a0\u00a0\u00a0\u00a0\u00a0\u00a0\u00a0\u00a0\u00a0\u00a0\u00a0\u00a0\u00a0\u00a0\u00a0\u00a0\u00a0\u00a0\u00a0\u00a0\u00a0\u00a0\u00a0\u00a0\u00a0\u00a0\u00a0\u00a0\u00a0\u00a0\u00a0\u00a0\u00a0\u00a0\u00a0\u00a0\u00a0\u00a0\u00a0\u00a0\u00a0\u00a0\u00a0\u00a0\u00a0\u00a0\u00a0\u00a0\u00a0\u00a0\u00a0\u00a0\u00a0\u00a0\u00a0\u00a0\u00a0\u00a0\u00a0\u00a0<\/span><\/span><\/span><\/span><\/span><\/span><\/span><\/span><\/span><\/span><\/p>\n\n<p><span><span><span><span><span><span><strong><span><span><span>STEP 4: <\/span><\/span><\/span><\/strong><\/span><span><span><span><span><span>Select 'Cookie Setting' and 'Block all Cookies'.<\/span><\/span><\/span><\/span><\/span><\/span><\/span><\/span><\/span><\/span><\/p>",
            "lang": "en"
        }
    ],
    "field_lesson_difficulty": [
        {
            "value": "Advanced"
        }
    ],
    "field_lesson_duration": [
        {
            "value": "Under 5 minutes"
        }
    ],
    "field_lesson_headphones": [
        {
            "value": false
        }
    ],
    "field_lesson_references": [
        {
            "uri": "route:<nolink>",
            "title": "all about cookies. (2020). Manage Cookies. https:\/\/www.allaboutcookies.org\/manage-cookies\/google-chrome.html",
            "options": []
        },
        {
            "uri": "route:<nolink>",
            "title": "Image source: Photo by Sergey Zolkin on Unsplash",
            "options": []
        }
    ],
    "field_lesson_type": [
        {
            "value": "tips"
        }
    ]
}