{
    "_links": {
        "self": {
            "href": "http:\/\/meli.bukach.me\/activity\/internet-cookies-accept-or-decline?_format=hal_json"
        },
        "type": {
            "href": "http:\/\/meli.bukach.me\/rest\/type\/node\/lesson"
        },
        "http:\/\/meli.bukach.me\/rest\/relation\/node\/lesson\/revision_uid": [
            {
                "href": "http:\/\/meli.bukach.me\/user\/46?_format=hal_json"
            }
        ],
        "http:\/\/meli.bukach.me\/rest\/relation\/node\/lesson\/uid": [
            {
                "href": "http:\/\/meli.bukach.me\/user\/46?_format=hal_json",
                "lang": "en"
            }
        ],
        "http:\/\/meli.bukach.me\/rest\/relation\/node\/lesson\/field_lesson_age_group": [
            {
                "href": "http:\/\/meli.bukach.me\/taxonomy\/term\/1?_format=hal_json"
            }
        ],
        "http:\/\/meli.bukach.me\/rest\/relation\/node\/lesson\/field_lesson_category": [
            {
                "href": "http:\/\/meli.bukach.me\/taxonomy\/term\/5?_format=hal_json"
            }
        ],
        "http:\/\/meli.bukach.me\/rest\/relation\/node\/lesson\/field_lesson_image": [
            {
                "href": "http:\/\/meli.bukach.me\/sites\/default\/files\/2021-01\/20201110145033-169140c5_1.png",
                "lang": "en"
            }
        ],
        "http:\/\/meli.bukach.me\/rest\/relation\/node\/lesson\/field_lesson_subcategory": [
            {
                "href": "http:\/\/meli.bukach.me\/taxonomy\/term\/23?_format=hal_json"
            }
        ]
    },
    "uuid": [
        {
            "value": "addf2f77-47b6-46b1-824a-4b351965c92d"
        }
    ],
    "langcode": [
        {
            "value": "en",
            "lang": "en"
        }
    ],
    "type": [
        {
            "target_id": "lesson"
        }
    ],
    "revision_timestamp": [
        {
            "value": "2021-01-08T15:11:22+00:00",
            "format": "Y-m-d\\TH:i:sP"
        }
    ],
    "_embedded": {
        "http:\/\/meli.bukach.me\/rest\/relation\/node\/lesson\/revision_uid": [
            {
                "_links": {
                    "self": {
                        "href": "http:\/\/meli.bukach.me\/user\/46?_format=hal_json"
                    },
                    "type": {
                        "href": "http:\/\/meli.bukach.me\/rest\/type\/user\/user"
                    }
                },
                "uuid": [
                    {
                        "value": "1662274a-95fa-4f0d-88c0-f625a051ba73"
                    }
                ]
            }
        ],
        "http:\/\/meli.bukach.me\/rest\/relation\/node\/lesson\/uid": [
            {
                "_links": {
                    "self": {
                        "href": "http:\/\/meli.bukach.me\/user\/46?_format=hal_json"
                    },
                    "type": {
                        "href": "http:\/\/meli.bukach.me\/rest\/type\/user\/user"
                    }
                },
                "uuid": [
                    {
                        "value": "1662274a-95fa-4f0d-88c0-f625a051ba73"
                    }
                ],
                "lang": "en"
            }
        ],
        "http:\/\/meli.bukach.me\/rest\/relation\/node\/lesson\/field_lesson_age_group": [
            {
                "_links": {
                    "self": {
                        "href": "http:\/\/meli.bukach.me\/taxonomy\/term\/1?_format=hal_json"
                    },
                    "type": {
                        "href": "http:\/\/meli.bukach.me\/rest\/type\/taxonomy_term\/children_age_group"
                    }
                },
                "uuid": [
                    {
                        "value": "b6cefbc4-6de2-4f66-81e7-990e86287d8f"
                    }
                ]
            }
        ],
        "http:\/\/meli.bukach.me\/rest\/relation\/node\/lesson\/field_lesson_category": [
            {
                "_links": {
                    "self": {
                        "href": "http:\/\/meli.bukach.me\/taxonomy\/term\/5?_format=hal_json"
                    },
                    "type": {
                        "href": "http:\/\/meli.bukach.me\/rest\/type\/taxonomy_term\/lesson_category"
                    }
                },
                "uuid": [
                    {
                        "value": "ecfc8bfd-f61b-4653-ad3a-d0b29b567917"
                    }
                ]
            }
        ],
        "http:\/\/meli.bukach.me\/rest\/relation\/node\/lesson\/field_lesson_image": [
            {
                "_links": {
                    "self": {
                        "href": "http:\/\/meli.bukach.me\/sites\/default\/files\/2021-01\/20201110145033-169140c5_1.png"
                    },
                    "type": {
                        "href": "http:\/\/meli.bukach.me\/rest\/type\/file\/file"
                    }
                },
                "uuid": [
                    {
                        "value": "567768ac-7b71-4dfc-b6ec-cd826ba4a2fb"
                    }
                ],
                "lang": "en"
            }
        ],
        "http:\/\/meli.bukach.me\/rest\/relation\/node\/lesson\/field_lesson_subcategory": [
            {
                "_links": {
                    "self": {
                        "href": "http:\/\/meli.bukach.me\/taxonomy\/term\/23?_format=hal_json"
                    },
                    "type": {
                        "href": "http:\/\/meli.bukach.me\/rest\/type\/taxonomy_term\/lesson_category"
                    }
                },
                "uuid": [
                    {
                        "value": "519e9b3e-e384-4a40-b77a-1d2b63d3f246"
                    }
                ]
            }
        ]
    },
    "status": [
        {
            "value": true,
            "lang": "en"
        }
    ],
    "title": [
        {
            "value": "Internet Cookies: Accept or Decline",
            "lang": "en"
        }
    ],
    "created": [
        {
            "value": "2021-01-08T15:09:33+00:00",
            "lang": "en",
            "format": "Y-m-d\\TH:i:sP"
        }
    ],
    "changed": [
        {
            "value": "2021-01-08T15:11:22+00:00",
            "lang": "en",
            "format": "Y-m-d\\TH:i:sP"
        }
    ],
    "promote": [
        {
            "value": false,
            "lang": "en"
        }
    ],
    "sticky": [
        {
            "value": false,
            "lang": "en"
        }
    ],
    "default_langcode": [
        {
            "value": true,
            "lang": "en"
        }
    ],
    "revision_translation_affected": [
        {
            "value": true,
            "lang": "en"
        }
    ],
    "path": [
        {
            "alias": "\/activity\/internet-cookies-accept-or-decline",
            "pid": 239,
            "langcode": "en",
            "lang": "en"
        }
    ],
    "content_translation_source": [
        {
            "value": "und",
            "lang": "en"
        }
    ],
    "content_translation_outdated": [
        {
            "value": false,
            "lang": "en"
        }
    ],
    "field_lesson_audience": [
        {
            "value": "Family"
        }
    ],
    "field_lesson_difficulty": [
        {
            "value": "Advanced"
        }
    ],
    "field_lesson_duration": [
        {
            "value": "Under 5 minutes"
        }
    ],
    "field_lesson_headphones": [
        {
            "value": false
        }
    ],
    "field_lesson_quiz": [
        {
            "answer": "All the information about our online activities, that helps websites create our profile to promote certain products to us ",
            "correct": "1",
            "lang": "en"
        },
        {
            "answer": " It doesn't mean anything. We just click on accept so we can continue on the website",
            "correct": "0",
            "lang": "en"
        },
        {
            "answer": "It is an antivirus system.",
            "correct": "0",
            "lang": "en"
        }
    ],
    "field_lesson_quiz_question": [
        {
            "value": "<p>What does online cookies mean? &nbsp;&nbsp;<\/p>\r\n",
            "format": "basic_html",
            "processed": "<p>What does online cookies mean? \u00a0\u00a0<\/p>",
            "lang": "en"
        }
    ],
    "field_lesson_references": [
        {
            "uri": "route:<nolink>",
            "title": "Norton LifeLock. What is a digital footprint? And how to help protect it from prying eyes. https:\/\/us.norton.com\/internetsecurity-privacy-clean-up-online-digital-footprint.htmlv",
            "options": []
        }
    ],
    "field_lesson_type": [
        {
            "value": "quiz"
        }
    ]
}