{
    "_links": {
        "self": {
            "href": "http:\/\/meli.bukach.me\/activity\/protecting-private-information?_format=hal_json"
        },
        "type": {
            "href": "http:\/\/meli.bukach.me\/rest\/type\/node\/lesson"
        },
        "http:\/\/meli.bukach.me\/rest\/relation\/node\/lesson\/revision_uid": [
            {
                "href": "http:\/\/meli.bukach.me\/user\/46?_format=hal_json"
            }
        ],
        "http:\/\/meli.bukach.me\/rest\/relation\/node\/lesson\/uid": [
            {
                "href": "http:\/\/meli.bukach.me\/user\/46?_format=hal_json",
                "lang": "en"
            }
        ],
        "http:\/\/meli.bukach.me\/rest\/relation\/node\/lesson\/field_lesson_age_group": [
            {
                "href": "http:\/\/meli.bukach.me\/taxonomy\/term\/1?_format=hal_json"
            }
        ],
        "http:\/\/meli.bukach.me\/rest\/relation\/node\/lesson\/field_lesson_category": [
            {
                "href": "http:\/\/meli.bukach.me\/taxonomy\/term\/5?_format=hal_json"
            }
        ],
        "http:\/\/meli.bukach.me\/rest\/relation\/node\/lesson\/field_lesson_image": [
            {
                "href": "http:\/\/meli.bukach.me\/sites\/default\/files\/2021-01\/20201110154651-109fb93b.jpg",
                "lang": "en"
            }
        ],
        "http:\/\/meli.bukach.me\/rest\/relation\/node\/lesson\/field_lesson_subcategory": [
            {
                "href": "http:\/\/meli.bukach.me\/taxonomy\/term\/23?_format=hal_json"
            }
        ]
    },
    "uuid": [
        {
            "value": "b6c011e4-cc08-4719-98a6-828c5fa68a48"
        }
    ],
    "langcode": [
        {
            "value": "en",
            "lang": "en"
        }
    ],
    "type": [
        {
            "target_id": "lesson"
        }
    ],
    "revision_timestamp": [
        {
            "value": "2021-01-08T15:28:40+00:00",
            "format": "Y-m-d\\TH:i:sP"
        }
    ],
    "_embedded": {
        "http:\/\/meli.bukach.me\/rest\/relation\/node\/lesson\/revision_uid": [
            {
                "_links": {
                    "self": {
                        "href": "http:\/\/meli.bukach.me\/user\/46?_format=hal_json"
                    },
                    "type": {
                        "href": "http:\/\/meli.bukach.me\/rest\/type\/user\/user"
                    }
                },
                "uuid": [
                    {
                        "value": "1662274a-95fa-4f0d-88c0-f625a051ba73"
                    }
                ]
            }
        ],
        "http:\/\/meli.bukach.me\/rest\/relation\/node\/lesson\/uid": [
            {
                "_links": {
                    "self": {
                        "href": "http:\/\/meli.bukach.me\/user\/46?_format=hal_json"
                    },
                    "type": {
                        "href": "http:\/\/meli.bukach.me\/rest\/type\/user\/user"
                    }
                },
                "uuid": [
                    {
                        "value": "1662274a-95fa-4f0d-88c0-f625a051ba73"
                    }
                ],
                "lang": "en"
            }
        ],
        "http:\/\/meli.bukach.me\/rest\/relation\/node\/lesson\/field_lesson_age_group": [
            {
                "_links": {
                    "self": {
                        "href": "http:\/\/meli.bukach.me\/taxonomy\/term\/1?_format=hal_json"
                    },
                    "type": {
                        "href": "http:\/\/meli.bukach.me\/rest\/type\/taxonomy_term\/children_age_group"
                    }
                },
                "uuid": [
                    {
                        "value": "b6cefbc4-6de2-4f66-81e7-990e86287d8f"
                    }
                ]
            }
        ],
        "http:\/\/meli.bukach.me\/rest\/relation\/node\/lesson\/field_lesson_category": [
            {
                "_links": {
                    "self": {
                        "href": "http:\/\/meli.bukach.me\/taxonomy\/term\/5?_format=hal_json"
                    },
                    "type": {
                        "href": "http:\/\/meli.bukach.me\/rest\/type\/taxonomy_term\/lesson_category"
                    }
                },
                "uuid": [
                    {
                        "value": "ecfc8bfd-f61b-4653-ad3a-d0b29b567917"
                    }
                ]
            }
        ],
        "http:\/\/meli.bukach.me\/rest\/relation\/node\/lesson\/field_lesson_image": [
            {
                "_links": {
                    "self": {
                        "href": "http:\/\/meli.bukach.me\/sites\/default\/files\/2021-01\/20201110154651-109fb93b.jpg"
                    },
                    "type": {
                        "href": "http:\/\/meli.bukach.me\/rest\/type\/file\/file"
                    }
                },
                "uuid": [
                    {
                        "value": "b69c87ea-243a-40e3-85b8-96e2624249ca"
                    }
                ],
                "lang": "en"
            }
        ],
        "http:\/\/meli.bukach.me\/rest\/relation\/node\/lesson\/field_lesson_subcategory": [
            {
                "_links": {
                    "self": {
                        "href": "http:\/\/meli.bukach.me\/taxonomy\/term\/23?_format=hal_json"
                    },
                    "type": {
                        "href": "http:\/\/meli.bukach.me\/rest\/type\/taxonomy_term\/lesson_category"
                    }
                },
                "uuid": [
                    {
                        "value": "519e9b3e-e384-4a40-b77a-1d2b63d3f246"
                    }
                ]
            }
        ]
    },
    "status": [
        {
            "value": true,
            "lang": "en"
        }
    ],
    "title": [
        {
            "value": "Protecting private information",
            "lang": "en"
        }
    ],
    "created": [
        {
            "value": "2021-01-08T15:17:56+00:00",
            "lang": "en",
            "format": "Y-m-d\\TH:i:sP"
        }
    ],
    "changed": [
        {
            "value": "2021-01-08T15:28:40+00:00",
            "lang": "en",
            "format": "Y-m-d\\TH:i:sP"
        }
    ],
    "promote": [
        {
            "value": false,
            "lang": "en"
        }
    ],
    "sticky": [
        {
            "value": false,
            "lang": "en"
        }
    ],
    "default_langcode": [
        {
            "value": true,
            "lang": "en"
        }
    ],
    "revision_translation_affected": [
        {
            "value": true,
            "lang": "en"
        }
    ],
    "path": [
        {
            "alias": "\/activity\/protecting-private-information",
            "pid": 241,
            "langcode": "en",
            "lang": "en"
        }
    ],
    "content_translation_source": [
        {
            "value": "und",
            "lang": "en"
        }
    ],
    "content_translation_outdated": [
        {
            "value": false,
            "lang": "en"
        }
    ],
    "field_lesson_audience": [
        {
            "value": "Family"
        }
    ],
    "field_lesson_description": [
        {
            "value": "<p><strong>STEP 1<\/strong>: The parent provides to the student a paper and asks them to write down their top 3 apps and why they like them &nbsp; &nbsp; &nbsp; &nbsp; &nbsp; &nbsp; &nbsp; &nbsp; &nbsp; &nbsp; &nbsp; &nbsp; &nbsp; &nbsp; &nbsp; &nbsp; &nbsp; &nbsp; &nbsp; &nbsp; &nbsp; &nbsp; &nbsp; &nbsp; &nbsp; &nbsp; &nbsp; &nbsp; &nbsp; &nbsp; &nbsp; &nbsp; &nbsp; &nbsp; &nbsp; &nbsp; &nbsp; &nbsp; &nbsp; &nbsp; &nbsp; &nbsp; &nbsp; &nbsp; &nbsp; &nbsp; &nbsp; &nbsp; &nbsp; &nbsp; &nbsp; &nbsp; &nbsp; &nbsp; &nbsp; &nbsp; &nbsp; &nbsp; &nbsp; &nbsp; &nbsp; &nbsp; &nbsp;<\/p>\r\n\r\n<p><strong>STEP 2<\/strong>: The parent asks the question: 'How do you make sure that your privacy like address, or information about you, is protected? The parent explains that we need to ensure that the settings for all the apps are set to the highest privacy and the child does not share any personal information with anyone. &nbsp; &nbsp; &nbsp; &nbsp; &nbsp; &nbsp; &nbsp; &nbsp; &nbsp; &nbsp; &nbsp; &nbsp; &nbsp; &nbsp; &nbsp; &nbsp; &nbsp; &nbsp; &nbsp; &nbsp; &nbsp; &nbsp; &nbsp; &nbsp; &nbsp; &nbsp; &nbsp; &nbsp; &nbsp; &nbsp; &nbsp; &nbsp; &nbsp; &nbsp; &nbsp; &nbsp; &nbsp; &nbsp; &nbsp; &nbsp; &nbsp; &nbsp; &nbsp; &nbsp; &nbsp; &nbsp; &nbsp; &nbsp; &nbsp; &nbsp; &nbsp; &nbsp; &nbsp; &nbsp; &nbsp; &nbsp; &nbsp; &nbsp; &nbsp; &nbsp; &nbsp; &nbsp; &nbsp; &nbsp; &nbsp; &nbsp; &nbsp; &nbsp; &nbsp; &nbsp;<\/p>\r\n\r\n<p><strong>STEP 3<\/strong>: The parent asks the kid: What would you do if your friend was doing something online that was dangerous? The parent explains to the kid that in such a case, the kid should tell his friend to remove what he\/she has done and if he\/she didn't listen, they have to tell their parents or teachers.<br \/>\r\n&nbsp;<\/p>\r\n",
            "format": "basic_html",
            "processed": "<p><strong>STEP 1<\/strong>: The parent provides to the student a paper and asks them to write down their top 3 apps and why they like them \u00a0 \u00a0 \u00a0 \u00a0 \u00a0 \u00a0 \u00a0 \u00a0 \u00a0 \u00a0 \u00a0 \u00a0 \u00a0 \u00a0 \u00a0 \u00a0 \u00a0 \u00a0 \u00a0 \u00a0 \u00a0 \u00a0 \u00a0 \u00a0 \u00a0 \u00a0 \u00a0 \u00a0 \u00a0 \u00a0 \u00a0 \u00a0 \u00a0 \u00a0 \u00a0 \u00a0 \u00a0 \u00a0 \u00a0 \u00a0 \u00a0 \u00a0 \u00a0 \u00a0 \u00a0 \u00a0 \u00a0 \u00a0 \u00a0 \u00a0 \u00a0 \u00a0 \u00a0 \u00a0 \u00a0 \u00a0 \u00a0 \u00a0 \u00a0 \u00a0 \u00a0 \u00a0 \u00a0<\/p>\n\n<p><strong>STEP 2<\/strong>: The parent asks the question: 'How do you make sure that your privacy like address, or information about you, is protected? The parent explains that we need to ensure that the settings for all the apps are set to the highest privacy and the child does not share any personal information with anyone. \u00a0 \u00a0 \u00a0 \u00a0 \u00a0 \u00a0 \u00a0 \u00a0 \u00a0 \u00a0 \u00a0 \u00a0 \u00a0 \u00a0 \u00a0 \u00a0 \u00a0 \u00a0 \u00a0 \u00a0 \u00a0 \u00a0 \u00a0 \u00a0 \u00a0 \u00a0 \u00a0 \u00a0 \u00a0 \u00a0 \u00a0 \u00a0 \u00a0 \u00a0 \u00a0 \u00a0 \u00a0 \u00a0 \u00a0 \u00a0 \u00a0 \u00a0 \u00a0 \u00a0 \u00a0 \u00a0 \u00a0 \u00a0 \u00a0 \u00a0 \u00a0 \u00a0 \u00a0 \u00a0 \u00a0 \u00a0 \u00a0 \u00a0 \u00a0 \u00a0 \u00a0 \u00a0 \u00a0 \u00a0 \u00a0 \u00a0 \u00a0 \u00a0 \u00a0 \u00a0<\/p>\n\n<p><strong>STEP 3<\/strong>: The parent asks the kid: What would you do if your friend was doing something online that was dangerous? The parent explains to the kid that in such a case, the kid should tell his friend to remove what he\/she has done and if he\/she didn't listen, they have to tell their parents or teachers.<br \/>\n\u00a0<\/p>",
            "lang": "en"
        }
    ],
    "field_lesson_difficulty": [
        {
            "value": "Advanced"
        }
    ],
    "field_lesson_duration": [
        {
            "value": "Under 5 minutes"
        }
    ],
    "field_lesson_headphones": [
        {
            "value": false
        }
    ],
    "field_lesson_references": [
        {
            "uri": "route:<nolink>",
            "title": "\"Norton LifeLock. What is a digital footprint? And how to help protect it from prying eyes. https:\/\/us.norton.com\/internetsecurity-privacy-clean-up-online-digital-footprint.html",
            "options": []
        },
        {
            "uri": "route:<nolink>",
            "title": "Image Source: Photo by Miriam Fischer from Pexels",
            "options": []
        }
    ],
    "field_lesson_type": [
        {
            "value": "discussion"
        }
    ]
}